Mon Nov 20 13:08:42 2017  Welcome to figures_doeclim.R
Mon Nov 20 13:08:42 2017  Loading libraries...
Mon Nov 20 13:08:42 2017  - loading ggplot2
Mon Nov 20 13:08:42 2017  - loading reshape2
Mon Nov 20 13:08:42 2017  - loading plyr
Mon Nov 20 13:08:42 2017  - loading plotrix
Mon Nov 20 13:08:42 2017  - loading data.table
Mon Nov 20 13:08:43 2017  - loading smatr
Mon Nov 20 13:08:43 2017  - loading dplyr
Mon Nov 20 13:08:43 2017  - loading tidyr
Mon Nov 20 13:08:45 2017  d rows = 386700 cols = 25
Mon Nov 20 13:08:46 2017  d rows = 300812 cols = 18
[1] "MaunaLoa" "Marland"  "Law Dome" "GCP"      "HOTS"     "HadCRUT4" "BATS"    
# A tibble: 29 x 2
        model  model_group
        <chr>        <chr>
 1   MaunaLoa observations
 2    Marland observations
 3   Law Dome observations
 4        GCP observations
 5       HOTS observations
 6   HadCRUT4 observations
 7       BATS observations
 8  MIROC-ESM        cmip5
 9  CESM1-BGC        cmip5
10 NorESM1-ME        cmip5
# ... with 19 more rows
…
300811:  /Users/horo597/Documents/hector/output/sample_outputstream_rcp45.csv    rcp45 HECTOR HECTOR    NA
300812:  /Users/horo597/Documents/hector/output/sample_outputstream_rcp45.csv    rcp45 HECTOR HECTOR    NA
        error_min error_max   vtag prettylabel component.x component.y
     1:        NA        NA    nbp                      NA            
     2:        NA        NA    nbp                      NA            
     3:        NA        NA    nbp                      NA            
     4:        NA        NA    nbp                      NA            
     5:        NA        NA    nbp                      NA            
    ---                                                               
300808:        NA        NA tgaveq                      NA          NA
300809:        NA        NA tgaveq                      NA          NA
300810:        NA        NA tgaveq                      NA          NA
300811:        NA        NA tgaveq                      NA          NA
300812:        NA        NA tgaveq                      NA          NA
# A tibble: 81,268 x 19
           ctag      variable  year      run_name  component       value   units
          <chr>         <chr> <dbl>         <chr>      <chr>       <dbl>   <chr>
 1 carbon_cycle atm_land_flux  1990 rcp85_doeclim simplenbox  1.00018000 Pg C/yr
 2 carbon_cycle atm_land_flux  1858 rcp60_doeclim simplenbox -0.07800560 Pg C/yr
 3 carbon_cycle atm_land_flux  1880 rcp85_doeclim simplenbox -0.12951300 Pg C/yr
 4 carbon_cycle atm_land_flux  1900 rcp45_doeclim simplenbox -0.00465018 Pg C/yr
 5 carbon_cycle atm_land_flux  1919 rcp60_doeclim simplenbox  0.12619000 Pg C/yr
 6 carbon_cycle atm_land_flux  1855 rcp85_doeclim simplenbox -0.16705700 Pg C/yr
 7 carbon_cycle atm_land_flux  1854 rcp45_doeclim simplenbox -0.17439000 Pg C/yr
 8 carbon_cycle atm_land_flux  1985 rcp85_doeclim simplenbox  0.98457500 Pg C/yr
 9 carbon_cycle atm_land_flux  1966 rcp26_doeclim simplenbox  0.39806800 Pg C/yr
10 carbon_cycle atm_land_flux  1858 rcp85_doeclim simplenbox -0.07800560 Pg C/yr
# ... with 81,258 more rows, and 12 more variables: source <chr>, scenario <chr>, model <chr>, type <chr>,
#   error <dbl>, error_min <dbl>, error_max <dbl>, vtag <chr>, prettylabel <chr>, component.x <lgl>,
#   component.y <chr>, model_group <chr>
# A tibble: 32,564 x 19
           ctag      variable  year      run_name  component      value   units
          <chr>         <chr> <dbl>         <chr>      <chr>      <dbl>   <chr>
 1 carbon_cycle atm_land_flux  1990 rcp85_doeclim simplenbox  1.0001800 Pg C/yr
 2 carbon_cycle atm_land_flux  1880 rcp85_doeclim simplenbox -0.1295130 Pg C/yr
 3 carbon_cycle atm_land_flux  1855 rcp85_doeclim simplenbox -0.1670570 Pg C/yr
 4 carbon_cycle atm_land_flux  1985 rcp85_doeclim simplenbox  0.9845750 Pg C/yr
 5 carbon_cycle atm_land_flux  1858 rcp85_doeclim simplenbox -0.0780056 Pg C/yr
 6 carbon_cycle atm_land_flux  1989 rcp85_doeclim simplenbox  0.9754110 Pg C/yr
 7 carbon_cycle atm_land_flux  1950 rcp85_doeclim simplenbox  0.2193920 Pg C/yr
 8 carbon_cycle atm_land_flux  1983 rcp85_doeclim simplenbox  0.9373090 Pg C/yr
 9 carbon_cycle atm_land_flux  1977 rcp85_doeclim simplenbox  0.8878890 Pg C/yr
10 carbon_cycle atm_land_flux  1895 rcp85_doeclim simplenbox -0.0135078 Pg C/yr
# ... with 32,554 more rows, and 12 more variables: source <chr>, scenario <chr>, model <chr>, type <chr>,
#   error <dbl>, error_min <dbl>, error_max <dbl>, vtag <chr>, prettylabel <chr>, component.x <lgl>,
#   component.y <chr>, model_group <chr>
# A tibble: 10,282 x 19
           ctag      variable  year      run_name  component      value   units
          <chr>         <chr> <dbl>         <chr>      <chr>      <dbl>   <chr>
 1 carbon_cycle atm_land_flux  1990 rcp85_doeclim simplenbox  1.0001800 Pg C/yr
 2 carbon_cycle atm_land_flux  1880 rcp85_doeclim simplenbox -0.1295130 Pg C/yr
 3 carbon_cycle atm_land_flux  1855 rcp85_doeclim simplenbox -0.1670570 Pg C/yr
 4 carbon_cycle atm_land_flux  1985 rcp85_doeclim simplenbox  0.9845750 Pg C/yr
 5 carbon_cycle atm_land_flux  1858 rcp85_doeclim simplenbox -0.0780056 Pg C/yr
 6 carbon_cycle atm_land_flux  1989 rcp85_doeclim simplenbox  0.9754110 Pg C/yr
 7 carbon_cycle atm_land_flux  1950 rcp85_doeclim simplenbox  0.2193920 Pg C/yr
 8 carbon_cycle atm_land_flux  1983 rcp85_doeclim simplenbox  0.9373090 Pg C/yr
 9 carbon_cycle atm_land_flux  1977 rcp85_doeclim simplenbox  0.8878890 Pg C/yr
10 carbon_cycle atm_land_flux  1895 rcp85_doeclim simplenbox -0.0135078 Pg C/yr
# ... with 10,272 more rows, and 12 more variables: source <chr>, scenario <chr>, model <chr>, type <chr>,
#   error <dbl>, error_min <dbl>, error_max <dbl>, vtag <chr>, prettylabel <chr>, component.x <lgl>,
#   component.y <chr>, model_group <chr>
# A tibble: 29 x 2
        model  model_group
        <chr>        <chr>
 1   MaunaLoa observations
 2    Marland observations
 3   Law Dome observations
 4        GCP observations
 5       HOTS observations
 6   HadCRUT4 observations
 7       BATS observations
 8  MIROC-ESM        cmip5
 9  CESM1-BGC        cmip5
10 NorESM1-ME        cmip5
# ... with 19 more rows
# A tibble: 32,564 x 19
           ctag      variable  year      run_name  component      value   units
          <chr>         <chr> <dbl>         <chr>      <chr>      <dbl>   <chr>
 1 carbon_cycle atm_land_flux  1990 rcp85_doeclim simplenbox  1.0001800 Pg C/yr
 2 carbon_cycle atm_land_flux  1880 rcp85_doeclim simplenbox -0.1295130 Pg C/yr
 3 carbon_cycle atm_land_flux  1855 rcp85_doeclim simplenbox -0.1670570 Pg C/yr
 4 carbon_cycle atm_land_flux  1985 rcp85_doeclim simplenbox  0.9845750 Pg C/yr
 5 carbon_cycle atm_land_flux  1858 rcp85_doeclim simplenbox -0.0780056 Pg C/yr
 6 carbon_cycle atm_land_flux  1989 rcp85_doeclim simplenbox  0.9754110 Pg C/yr
 7 carbon_cycle atm_land_flux  1950 rcp85_doeclim simplenbox  0.2193920 Pg C/yr
 8 carbon_cycle atm_land_flux  1983 rcp85_doeclim simplenbox  0.9373090 Pg C/yr
 9 carbon_cycle atm_land_flux  1977 rcp85_doeclim simplenbox  0.8878890 Pg C/yr
10 carbon_cycle atm_land_flux  1895 rcp85_doeclim simplenbox -0.0135078 Pg C/yr
# ... with 32,554 more rows, and 12 more variables: source <chr>, scenario <chr>, model <chr>, type <chr>,
#   error <dbl>, error_min <dbl>, error_max <dbl>, vtag <chr>, prettylabel <chr>, component.x <lgl>,
#   component.y <chr>, model_group <chr>
# A tibble: 936 x 19
           ctag      variable  year                  run_name  component       value   units
          <chr>         <chr> <dbl>                     <chr>      <chr>       <dbl>   <chr>
 1 carbon_cycle atm_land_flux  1990 sample_outputstream_rcp85 simplenbox  0.96211000 Pg C/yr
 2 carbon_cycle atm_land_flux  1891 sample_outputstream_rcp85 simplenbox -0.00664483 Pg C/yr
 3 carbon_cycle atm_land_flux  1933 sample_outputstream_rcp85 simplenbox  0.21411600 Pg C/yr
 4 carbon_cycle atm_land_flux  1960 sample_outputstream_rcp85 simplenbox  0.24900100 Pg C/yr
 5 carbon_cycle atm_land_flux  1972 sample_outputstream_rcp85 simplenbox  0.79236400 Pg C/yr
 6 carbon_cycle atm_land_flux  1977 sample_outputstream_rcp85 simplenbox  0.85955900 Pg C/yr
 7 carbon_cycle atm_land_flux  1913 sample_outputstream_rcp85 simplenbox  0.12121400 Pg C/yr
 8 carbon_cycle atm_land_flux  1939 sample_outputstream_rcp85 simplenbox  0.27948500 Pg C/yr
 9 carbon_cycle atm_land_flux  1873 sample_outputstream_rcp85 simplenbox -0.09237370 Pg C/yr
10 carbon_cycle atm_land_flux  1952 sample_outputstream_rcp85 simplenbox  0.07679510 Pg C/yr
# ... with 926 more rows, and 12 more variables: source <chr>, scenario <chr>, model <chr>, type <chr>,
#   error <dbl>, error_min <dbl>, error_max <dbl>, vtag <chr>, prettylabel <chr>, component.x <lgl>,
#   component.y <chr>, model_group <chr>
…
[106] 1901 1888 1930 1959 1883 1983 2002 1869 1897 2000 1955 1858 1921 1866 1853 1909 1917 1988 1970 1923 1889
[127] 1892 1995 1950 1882 1856 1864 1922 1854 1932 1865 1906 1971 1935 1985 1895 1975 1896 1984 1974 1914 1878
[148] 1945 1958 1946 2001 1855 1915 1867 1880 1907
  [1] 1850 1851 1852 1853 1854 1855 1856 1857 1858 1859 1860 1861 1862 1863 1864 1865 1866 1867 1868 1869 1870
 [22] 1871 1872 1873 1874 1875 1876 1877 1878 1879 1880 1881 1882 1883 1884 1885 1886 1887 1888 1889 1890 1891
 [43] 1892 1893 1894 1895 1896 1897 1898 1899 1900 1901 1902 1903 1904 1905 1906 1907 1908 1909 1910 1911 1912
 [64] 1913 1914 1915 1916 1917 1918 1919 1920 1921 1922 1923 1924 1925 1926 1927 1928 1929 1930 1931 1932 1933
 [85] 1934 1935 1936 1937 1938 1939 1940 1941 1942 1943 1944 1945 1946 1947 1948 1949 1950 1951 1952 1953 1954
[106] 1955 1956 1957 1958 1959 1960 1961 1962 1963 1964 1965 1966 1967 1968 1969 1970 1971 1972 1973 1974 1975
[127] 1976 1977 1978 1979 1980 1981 1982 1983 1984 1985 1986 1987 1988 1989 1990 1991 1992 1993 1994 1995 1996
[148] 1997 1998 1999 2000 2001 2002 2003 2004 2005
[1] "carbon_cycle" "forcing"      "ocean"        "temperature" 
[1] "atm_ocean_flux" "atmos_co2"      "ftot"           "nbp"            "ph_ll"          "tgav"          
[1] 900
# A tibble: 10,282 x 19
# Groups:   year, ctag, vtag [936]
           ctag      variable  year      run_name  component      value   units
          <chr>         <chr> <dbl>         <chr>      <chr>      <dbl>   <chr>
 1 carbon_cycle atm_land_flux  1990 rcp85_doeclim simplenbox  1.0001800 Pg C/yr
 2 carbon_cycle atm_land_flux  1880 rcp85_doeclim simplenbox -0.1295130 Pg C/yr
 3 carbon_cycle atm_land_flux  1855 rcp85_doeclim simplenbox -0.1670570 Pg C/yr
 4 carbon_cycle atm_land_flux  1985 rcp85_doeclim simplenbox  0.9845750 Pg C/yr
 5 carbon_cycle atm_land_flux  1858 rcp85_doeclim simplenbox -0.0780056 Pg C/yr
 6 carbon_cycle atm_land_flux  1989 rcp85_doeclim simplenbox  0.9754110 Pg C/yr
 7 carbon_cycle atm_land_flux  1950 rcp85_doeclim simplenbox  0.2193920 Pg C/yr
 8 carbon_cycle atm_land_flux  1983 rcp85_doeclim simplenbox  0.9373090 Pg C/yr
 9 carbon_cycle atm_land_flux  1977 rcp85_doeclim simplenbox  0.8878890 Pg C/yr
10 carbon_cycle atm_land_flux  1895 rcp85_doeclim simplenbox -0.0135078 Pg C/yr
# ... with 10,272 more rows, and 12 more variables: source <chr>, scenario <chr>, model <chr>, type <chr>,
#   error <dbl>, error_min <dbl>, error_max <dbl>, vtag <chr>, prettylabel <chr>, component.x <lgl>,
#   component.y <chr>, model_group <chr>
# A tibble: 936 x 19
           ctag      variable  year                  run_name  component       value   units
          <chr>         <chr> <dbl>                     <chr>      <chr>       <dbl>   <chr>
 1 carbon_cycle atm_land_flux  1990 sample_outputstream_rcp85 simplenbox  0.96211000 Pg C/yr
 2 carbon_cycle atm_land_flux  1891 sample_outputstream_rcp85 simplenbox -0.00664483 Pg C/yr
 3 carbon_cycle atm_land_flux  1933 sample_outputstream_rcp85 simplenbox  0.21411600 Pg C/yr
 4 carbon_cycle atm_land_flux  1960 sample_outputstream_rcp85 simplenbox  0.24900100 Pg C/yr
 5 carbon_cycle atm_land_flux  1972 sample_outputstream_rcp85 simplenbox  0.79236400 Pg C/yr
 6 carbon_cycle atm_land_flux  1977 sample_outputstream_rcp85 simplenbox  0.85955900 Pg C/yr
 7 carbon_cycle atm_land_flux  1913 sample_outputstream_rcp85 simplenbox  0.12121400 Pg C/yr
 8 carbon_cycle atm_land_flux  1939 sample_outputstream_rcp85 simplenbox  0.27948500 Pg C/yr
 9 carbon_cycle atm_land_flux  1873 sample_outputstream_rcp85 simplenbox -0.09237370 Pg C/yr
10 carbon_cycle atm_land_flux  1952 sample_outputstream_rcp85 simplenbox  0.07679510 Pg C/yr
# ... with 926 more rows, and 12 more variables: source <chr>, scenario <chr>, model <chr>, type <chr>,
#   error <dbl>, error_min <dbl>, error_max <dbl>, vtag <chr>, prettylabel <chr>, component.x <lgl>,
#   component.y <chr>, model_group <chr>
# A tibble: 10,282 x 19
           ctag      variable  year      run_name  component      value   units
          <chr>         <chr> <dbl>         <chr>      <chr>      <dbl>   <chr>
 1 carbon_cycle atm_land_flux  1990 rcp85_doeclim simplenbox  1.0001800 Pg C/yr
 2 carbon_cycle atm_land_flux  1880 rcp85_doeclim simplenbox -0.1295130 Pg C/yr
 3 carbon_cycle atm_land_flux  1855 rcp85_doeclim simplenbox -0.1670570 Pg C/yr
 4 carbon_cycle atm_land_flux  1985 rcp85_doeclim simplenbox  0.9845750 Pg C/yr
 5 carbon_cycle atm_land_flux  1858 rcp85_doeclim simplenbox -0.0780056 Pg C/yr
 6 carbon_cycle atm_land_flux  1989 rcp85_doeclim simplenbox  0.9754110 Pg C/yr
 7 carbon_cycle atm_land_flux  1950 rcp85_doeclim simplenbox  0.2193920 Pg C/yr
 8 carbon_cycle atm_land_flux  1983 rcp85_doeclim simplenbox  0.9373090 Pg C/yr
 9 carbon_cycle atm_land_flux  1977 rcp85_doeclim simplenbox  0.8878890 Pg C/yr
10 carbon_cycle atm_land_flux  1895 rcp85_doeclim simplenbox -0.0135078 Pg C/yr
# ... with 10,272 more rows, and 12 more variables: source <chr>, scenario <chr>, model <chr>, type <chr>,
#   error <dbl>, error_min <dbl>, error_max <dbl>, vtag <chr>, prettylabel <chr>, component.x <lgl>,
#   component.y <chr>, model_group <chr>
# A tibble: 936 x 19
      ctag variable  year      run_name component   value units
     <chr>    <chr> <dbl>         <chr>     <chr>   <dbl> <chr>
 1 forcing     ftot  1905 rcp85_doeclim   forcing  0.1200  W/m2
 2 forcing     ftot  1889 rcp85_doeclim   forcing -0.1692  W/m2
 3 forcing     ftot  1924 rcp85_doeclim   forcing  0.3633  W/m2
 4 forcing     ftot  2004 rcp85_doeclim   forcing  2.4060  W/m2
 5 forcing     ftot  1960 rcp85_doeclim   forcing  0.3871  W/m2
 6 forcing     ftot  1877 rcp85_doeclim   forcing  0.2247  W/m2
 7 forcing     ftot  1975 rcp85_doeclim   forcing  0.5465  W/m2
 8 forcing     ftot  1870 rcp85_doeclim   forcing  0.2859  W/m2
 9 forcing     ftot  1899 rcp85_doeclim   forcing  0.2724  W/m2
10 forcing     ftot  1930 rcp85_doeclim   forcing  0.2919  W/m2
# ... with 926 more rows, and 12 more variables: source <chr>, scenario <chr>, model <chr>, type <chr>,
#   error <dbl>, error_min <dbl>, error_max <dbl>, vtag <chr>, prettylabel <chr>, component.x <lgl>,
#   component.y <chr>, model_group <chr>
…
